.............
----------------------------------------------------------------------
Ran 13 tests in 0.023s

OK
Name             Stmts   Miss Branch BrPart  Cover   Missing
------------------------------------------------------------
Collatz.py          34      0     14      0   100%
TestCollatz.py      58      0      0      0   100%
------------------------------------------------------------
TOTAL               92      0     14      0   100%
